BEGIN;
CREATE SCHEMA faker;
CREATE EXTENSION faker SCHEMA faker CASCADE;
NOTICE:  installing required extension "plpython3u"
SELECT faker.faker('fr_FR');
 faker 
-------
 t
(1 row)

SELECT faker.department() IS NOT NULL;
 ?column? 
----------
 t
(1 row)

SELECT faker.military_apo() IS NULL;
WARNING:  the `military_apo` method is not available in the current locale(s)
HINT:  See https://faker.readthedocs.io/en/master/locales.html
 ?column? 
----------
 t
(1 row)

SELECT faker.faker('en_US');
 faker 
-------
 t
(1 row)

SELECT faker.military_apo() IS NOT NULL;
 ?column? 
----------
 t
(1 row)

ROLLBACK;
